{
	"id": "ff391b35-5fd5-457a-ac4d-cd974a7395f3",
	"name": "connect_4",
	"values": [
		{
			"key": "server_address",
			"value": "http://127.0.0.1:5000",
			"enabled": true
		},
		{
			"key": "access_token",
			"value": "",
			"enabled": true
		}
	],
	"_postman_variable_scope": "environment",
	"_postman_exported_at": "2020-02-25T17:32:13.500Z",
	"_postman_exported_using": "Postman/7.10.0"
}
