alembic==1.3.1
aniso8601==8.0.0
astroid==2.3.3
Babel==2.7.0
bcrypt==3.1.7
blinker==1.4
cffi==1.14.0
Click==7.0
colorama==0.4.3
coverage==4.5.4
cryptography==2.8
dataclasses-json==0.3.8
Flask==1.1.1
Flask-Babel==1.0.0
Flask-BabelEx==0.9.3
Flask-JWT-Extended==3.24.1
Flask-Login==0.4.1
Flask-Mail==0.9.1
Flask-Migrate==2.5.2
Flask-Principal==0.4.0
Flask-RESTful==0.3.8
Flask-Security==3.0.0
Flask-SQLAlchemy==2.4.1
Flask-User==1.0.2.2
Flask-WTF==0.14.2
isort==4.3.21
itsdangerous==1.1.0
Jinja2==2.10.3
lazy-object-proxy==1.4.3
Mako==1.1.0
MarkupSafe==1.1.1

mccabe==0.6.1
mypy-extensions==0.4.3
passlib==1.7.1
psycopg2==2.8.4
pycparser==2.19
PyJWT==1.7.1
pylint==2.4.4
pylint-flask==0.6
pylint-sqlalchemy==0.2
python-dateutil==2.8.1
python-dotenv==0.11.0
python-editor==1.0.4
pytz==2019.3
six==1.13.0
speaklater==1.3
SQLAlchemy==1.3.11
stringcase==1.2.0
typed-ast==1.4.1
typing-extensions==3.7.4.1
typing-inspect==0.5.0
Werkzeug==0.16.0
wrapt==1.11.2
WTForms==2.2.1
marshmallow==3.5
flask-marshmallow==0.11
marshmallow-sqlalchemy==0.22
